Imputación de datos faltantes en base de datos de cervecerías
…
¿Qué hay de las ciudades con más productores de cerveza?

original_breweries |> group_by(state, city) |> summarise(breweries = n()) |> arrange(desc(breweries))

## `summarise()` has grouped output by 'state'. You can override using the
## `.groups` argument.

## # A tibble: 401 × 3
## # Groups:   state [51]
##    state city          breweries
##    <chr> <chr>             <int>
##  1 " OR" Portland             11
##  2 " CO" Boulder               9
##  3 " IL" Chicago               9
##  4 " WA" Seattle               9
##  5 " CA" San Diego             8
##  6 " CO" Denver                8
##  7 " TX" Austin                8
##  8 " ME" Portland              6
##  9 " OR" Bend                  6
## 10 " CA" San Francisco         5
## # ℹ 391 more rows
…
